{
    "metadata": {
    	"uid": 1002,
    	"type": "EMAIL",
    	"priority": 1,
        "flagRecent": true,
        "flagSeen": true,
        "flagUnread": false,
        "flagAns": false,
        "flagFlagged": false,
        "flagDel": false,
        "flagBounce": false,
        "flagPriv": false,
        "flagDraft": false,
        "keywords": "abcd xyz pqr",
        "hasAttachments": false,
        "deliverNDR": 4,
        "sentDate": "12-Sept-2012 11:30 AM",
        "arrivalTime": 6234234123,
        "lastAccessedTime": 6234234236,
        "expireOn": 232344000,
        "size": 696,
        "threadId": "thread-1231451",
        "from": "Bob <bob@openwave.com>",
        "to": "Foo <foo@openwave.com>",
        "cc": "Foo <foo@openwave.com>",
        "subject": "Test Subject"
    },
    "header": {
        "headerBlob": "MIME-Version: 1.0 Received: by 10.58.198.133 with HTTP; Thu, 17 Jan 2013 07:22:53 -0800 (PST) Date: Thu, 17 Jan 2013 20:52:53 +0530 Delivered-To: bob@openwave.com Message-ID: <CABkpc=n7J5brP0kkfybFCyF9y6V87rfYjBAXU0NX8FvDTQ0U0A@mail.openwave.com> Subject: Test Subject222 From: Bob <bob@openwave.com> To: Foo <foo@openwave.com> Content-Type: multipart/alternative; boundary=089e01177ad58d6cea04d37d91a1"
    },
    "body": {
        "messageBlob": "--089e01177ad58d6cea04d37d91a1 Content-Type: text/plain; charset=ISO-8859-1 Test Mail --089e01177ad58d6cea04d37d91a1 Content-Type: text/html; charset=ISO-8859-1 <div>Test Mail<br></div> --089e01177ad58d6cea04d37d91a1-- "
    }
}