{
	"userId" : "ABUserName",
	"created": "2011-06-28T17:26:54Z",
	"updated": "2011-06-28T17:26:54Z",
	"contacts": [
		{
			"contactId": "Bob",
			"created": "2011-06-28T17:26:54Z",
			"updated": "2011-06-28T17:26:54Z",
			"private": "no",
			"notes": "some notes about the contact",
			"customFields": "comma separated custom field",
			"name": {
				"displayName": "Bob Blogs",
				"firstName": "Bob",
				"middleName": "",
				"lastName": "Blogs",
				"prefix": "Mr.",
				"suffix": "PhD",
				"nickName": "xyz"
			},
			"workInfo": {
				"companyName": "Openwave",
				"department": "R&D",
				"title": "Manager",
				"address": {
					"Name": "611 Lakeview Apartments",
					"street": "2100, Seaport Blvd",
					"city": "Redwood city",
					"stateOrProvince": "California",
					"postalCode": "45-765-24",
					"country": "USA",
					"countryCode": "ISO 3166 Country code"
				},
				"communication" : {
					"preference": "mobile",
					"phone": "+1223444",
					"IP-phone": "+1223444",
					"mobile": "+212323",
					"fax": "+3234234"
					"email": "bob@openwave.com",
					"IMAddress": "bob@openwave.com"
				}
				"webPage": "http://www.openwave.com",
				"vCard": "QkVHSU46VkNBUkQNClZFUlNJT046Mi4xDQpOOkd1bXA7Rm9ycmVzdA"
			},
			"personalInfo": {
				"address": {
					"Name": "611 Lakeview Apartments",
					"street": "2100, Seaport Blvd",
					"city": "Redwood city",
					"stateOrProvince": "California",
					"postalCode": "45-765-24",
					"country": "USA",
					"countryCode": "ISO 3166 Country code"
				},
				"communication" : {
					"preference": "mobile",
					"phone": "+1223444",
					"IP-phone": "+1223444",
					"mobile": "+212323",
					"fax": "+3234234"
					"email": "bob@openwave.com",
					"IMAddress": "bob@openwave.com"
				},
				"events" : [
					{
						"type" : "birthday",
						"day": 1,
						"month": 1,
						"year": 1980
					},
					{
						"type" : "anniversary",
						"day": 1,
						"month": 1,
						"year": 2000
					}
				],
				"spouseName": "Liza",
			},
			"image": {
				"size": "string",   
				"width": 120,        
				"height": 180,       
				"imageUrl": "imageURLstring" 
			}
			"Subscriptions": [
				{
				  "otherUserId": "Darshan",
				  "href": "http://mxos.com:8080/addressbook/v1/{Darshan}/shared/{ABUserName}/contacts/{Bob}"
				}
			],
			"groupLinks": [
				{
				  "groupId": "MxOSTeam",
				  "href": "http://mxos.com:8080/addressbook/v1/{ABUserName}/groups/{MxOSTeam}/members/{Bob}"
				}
			]
		}
	],
	"groups": [
		{
			"groupId": "MxOSTeam",
			"created": "2011-06-28T17:26:54Z",
			"updated": "2011-06-28T17:26:54Z",
			"groupEmail": "mxos-dev@openwave.com",
			"customFields": "List of comma separated fields",
			"private": "no",
			"Subscriptions": [
				{
				  "otherUserId": "Darshan",
				  "href": "http://mxos.com:8080/addressbook/v1/{Darshan}/shared/{ABUserName}/groups/{MxOSTeam}"
				}
			],
			"members": [
				{
					"memberId": "Bob",
					"memberURL": "http://mxos.com:8080/addressbook/v1/{ABUserName}/contacts/{Bob}
				}
			]
		}
	],
	"notifications": [
		{
			"created": "2011-06-28T17:26:54Z",
			"updated": "2011-06-28T17:26:54Z",
			"callbackReference": {
				"notifyURL": "http://application.com/addressbook/notifications",
				"callbackData": "12345"
			},
			"clientCorrelator": "123",
			"applicationTag": "myApp",
			"expiryDuration": "1958"
		}
	],
	"subscriptions": [
		{
			"otherUserId": "Darshan",
			"created": "2011-06-28T17:26:54Z",
			"updated": "2011-06-28T17:26:54Z",
			"sharedContacts": {
				"sharedIdentity": "Satyam",
				"sharedURL": "http://mxos.com:8080/addressbook/v1/{Darshan}/contacts/{Satyam}"
			},
			"sharedGroups": {
				"sharedIdentity": "Openwave-Mainline",
				"sharedURL": "http://mxos.com:8080/addressbook/v1/{Darshan}/groups/{Openwave-Mainline}"
			}
		}
	]
}