{
    "topic": "12345;1",
    "subscriptions": [
        "clientId:imapserv1;callbackURL:http://192.168.0.104:5701/imapserv1/12345",
        "clientId:imapserv2;callbackURL:http://192.168.0.104:5701/imapserv2/12345"
    ]
}
